{
 "Fashion": [
  {
   "title": "GRATIS Gelang Swarovski dengan Kartu Debit BNI ",
   "image": "http://m.bnizona.com/files/6efcf507ce5bd867ad106939fc2110ae.jpg",
   "merchantName": "Shafira",
   "validUntil": "03 April 2016",
   "href": "http://m.bnizona.com/index.php/promo/view/16/1169"
  },
  {
   "title": "BNI - ZALORA THURSDAY SPECIAL",
   "image": "http://m.bnizona.com/files/83481f460ae09ecbee0096962d38d6ce.png",
   "merchantName": "www.zalora.co.id",
   "validUntil": "31 March 2016",
   "href": "http://m.bnizona.com/index.php/promo/view/16/1134"
  },
  {
   "title": "Cicilan 0% untuk 3 & 6 bulan di Euroskinlab",
   "image": "http://m.bnizona.com/files/2b6cf24b89f4d0cb20fa6c64470e3f22.jpg",
   "merchantName": "EuroSkinLab",
   "validUntil": "31 October 2016",
   "href": "http://m.bnizona.com/index.php/promo/view/16/1124"
  },
  {
   "title": "Cicilan 0% di Bimbi.com dengan Kartu Kredit BNI",
   "image": "http://m.bnizona.com/files/4d59952517d21daf4a16fdbeec17379b.jpg",
   "merchantName": "Bimbi.com",
   "validUntil": "30 June 2016",
   "href": "http://m.bnizona.com/index.php/promo/view/16/1120"
  },
  {
   "title": "Diskon 10% di EVB dengan Kartu Kredit BNI",
   "image": "http://m.bnizona.com/files/5325a2ce1fd2a9d3bbee1a5a76ead381.jpg",
   "merchantName": "EVB",
   "validUntil": "30 September 2016",
   "href": "http://m.bnizona.com/index.php/promo/view/16/1115"
  },
  {
   "title": "Hemat hingga 100% dengan BNI Reward Points di Superdry",
   "image": "http://m.bnizona.com/files/9c161fd3e5e6afba21dd3c41e29e4e3f.jpg",
   "merchantName": "Superdry",
   "validUntil": "31 March 2016",
   "href": "http://m.bnizona.com/index.php/promo/view/16/1114"
  },
  {
   "title": "Diskon 15% di Point Break dengan Kartu Kredit BNI",
   "image": "http://m.bnizona.com/files/ee6795b4b96f323e930c9d88139f8c03.jpg",
   "merchantName": "Point Break",
   "validUntil": "30 June 2016",
   "href": "http://m.bnizona.com/index.php/promo/view/16/1112"
  },
  {
   "title": "Cantik dengan THEFACESHOP diskon hingga 15%",
   "image": "http://m.bnizona.com/files/9b5895a577917f999c70aecc6a15088c.jpg",
   "merchantName": "THEFACESHOP",
   "validUntil": "31 March 2016",
   "href": "http://m.bnizona.com/index.php/promo/view/16/1109"
  },
  {
   "title": "Shopping brand Quiksilver dan DC Shoes diskon 10% ",
   "image": "http://m.bnizona.com/files/542da19361af63b1eb52fca7f17512cc.jpg",
   "merchantName": "Quiksilver",
   "validUntil": "18 March 2017",
   "href": "http://m.bnizona.com/index.php/promo/view/16/1108"
  },
  {
   "title": "Diskon 10% untuk brand Hurley dengan Kartu Kredit BNI",
   "image": "http://m.bnizona.com/files/07f158d119c0dfd5b77906c87fd7fedf.jpg",
   "merchantName": "Hurley",
   "validUntil": "18 March 2017",
   "href": "http://m.bnizona.com/index.php/promo/view/16/1106"
  },
  {
   "title": "Diskon 20% Untuk Reguler Items Giordano, Giordano Junior dan Giordano Ladies dengan Kartu Kredit BNI",
   "image": "http://m.bnizona.com/files/5a4372643447cc557de063955fc5c150.jpg",
   "merchantName": "Giordano",
   "validUntil": "18 March 2017",
   "href": "http://m.bnizona.com/index.php/promo/view/16/1105"
  },
  {
   "title": "Shop & Trip @Centro & @Parkson Departement Store     ",
   "image": "http://m.bnizona.com/files/cfabf057560e5cbfd6fc62e988864c55.jpg",
   "merchantName": "BNI Experience",
   "validUntil": "29 February 2016",
   "href": "http://m.bnizona.com/index.php/promo/view/16/1085"
  },
  {
   "title": "Installment 0% di Mardhatillah",
   "image": "http://m.bnizona.com/files/0ac26bdc00e7e2a4ed51ffefc13b932e.jpg",
   "merchantName": "Mardhatillah",
   "validUntil": "01 April 2016",
   "href": "http://m.bnizona.com/index.php/promo/view/16/826"
  },
  {
   "title": "Installment 0% di D Baby Corner",
   "image": "http://m.bnizona.com/files/197389ee9cbb60977fd093942e057d3a.jpg",
   "merchantName": "D Baby Corner",
   "validUntil": "30 March 2016",
   "href": "http://m.bnizona.com/index.php/promo/view/16/790"
  },
  {
   "title": "Installment 0% di Susan Baby Shop",
   "image": "http://m.bnizona.com/files/e49f0e33c14a8e1869633614ac2cec6a.jpg",
   "merchantName": "Susan Baby Shop",
   "validUntil": "31 March 2016",
   "href": "http://m.bnizona.com/index.php/promo/view/16/788"
  },
  {
   "title": "Installment 0% di Nathan's",
   "image": "http://m.bnizona.com/files/fd39145055c5068aa828af0f0ddd693c.jpg",
   "merchantName": "Nathan's",
   "validUntil": "22 March 2016",
   "href": "http://m.bnizona.com/index.php/promo/view/16/735"
  },
  {
   "title": "Installment 0% di Verona",
   "image": "http://m.bnizona.com/files/2450f63b7ba857dd59103b6633db2d7a.jpg",
   "merchantName": "Verona",
   "validUntil": "26 February 2016",
   "href": "http://m.bnizona.com/index.php/promo/view/16/697"
  }
 ],
 "Groceries": [
  {
   "title": "Gratis 5 Produk di Tip Top Swalayan dengan Kartu Kredit BNI",
   "image": "http://m.bnizona.com/files/9ce11ea608637f8f53b4d19220ccb827.jpg",
   "merchantName": "Tip Top Swalayan",
   "validUntil": "03 April 2016",
   "href": "http://m.bnizona.com/index.php/promo/view/17/1163"
  },
  {
   "title": "Tambahan diskon 20% fresh product di LOTTEMart Hypermaket dan Supermaket",
   "image": "http://m.bnizona.com/files/63ba74328ee763a5c68f8e7c98a6c3a9.jpg",
   "merchantName": "LOTTEMart Hypermarket",
   "validUntil": "30 June 2016",
   "href": "http://m.bnizona.com/index.php/promo/view/17/1121"
  }
 ],
 "Food and Beverage": [
  {
   "title": "BNI Dining Experience",
   "image": "http://m.bnizona.com/files/cfabf057560e5cbfd6fc62e988864c55.jpg",
   "merchantName": "BNI Experience",
   "validUntil": "31 January 2017",
   "href": "http://m.bnizona.com/index.php/promo/view/18/1153"
  },
  {
   "title": "Nikmati Seafood lezat di The Manhattan Fish Market dengan Kartu Kredit BNI",
   "image": "http://m.bnizona.com/files/e3a939d49777cf2327d11f70058a87a6.png",
   "merchantName": "The Manhattan Fish Market",
   "validUntil": "28 February 2016",
   "href": "http://m.bnizona.com/index.php/promo/view/18/1152"
  },
  {
   "title": "Diskon hingga 33% santap di Grand Suki dengan Kartu Kredit BNI",
   "image": "http://m.bnizona.com/files/9ca3491e3432942cf0fda60e13b1535f.png",
   "merchantName": "Grand Suki",
   "validUntil": "30 April 2016",
   "href": "http://m.bnizona.com/index.php/promo/view/18/1151"
  },
  {
   "title": "Diskon 20% di Imperial Chef dengan Kartu Kredit BNI",
   "image": "http://m.bnizona.com/files/eec79aa555e7cd5c4ffaabb0451700f7.png",
   "merchantName": "Imperial Chef",
   "validUntil": "30 April 2016",
   "href": "http://m.bnizona.com/index.php/promo/view/18/1149"
  },
  {
   "title": "Diskon hingga 33% santap di Han Gang Korean Restaurant dengan Kartu Kredit BNI",
   "image": "http://m.bnizona.com/files/1df466566de3fdebb53e86addecc1427.jpg",
   "merchantName": "Han Gang",
   "validUntil": "30 April 2016",
   "href": "http://m.bnizona.com/index.php/promo/view/18/1148"
  },
  {
   "title": "Diskon 15% dengan Kartu Kredit BNI di Shokupan",
   "image": "http://m.bnizona.com/files/8db79f0d9134dd99ee9bdcc284cada6d.png",
   "merchantName": "Shokupan Bakery & Cakes",
   "validUntil": "15 May 2016",
   "href": "http://m.bnizona.com/index.php/promo/view/18/1147"
  },
  {
   "title": "Free Payung di Rumah Buah dengan Kartu Kredit BNI",
   "image": "http://m.bnizona.com/files/1803ad0fb4b2f201b0dad05500ae69c6.png",
   "merchantName": "Rumah Buah",
   "validUntil": "14 April 2016",
   "href": "http://m.bnizona.com/index.php/promo/view/18/1146"
  },
  {
   "title": "Diskon 10% untuk Paket Big Box dengan Kartu Kredit BNI",
   "image": "http://m.bnizona.com/files/085f0e6c028f61994d1f3fb4f4878799.jpg",
   "merchantName": "Pizza Hut Delivery",
   "validUntil": "24 January 2017",
   "href": "http://m.bnizona.com/index.php/promo/view/18/1145"
  },
  {
   "title": "Hemat 15% dengan BNI Reward Point di Pancious",
   "image": "http://m.bnizona.com/files/3f49b1314cdf6d6b78e7343f7059ddee.jpg",
   "merchantName": "Pancious",
   "validUntil": "12 July 2016",
   "href": "http://m.bnizona.com/index.php/promo/view/18/1144"
  },
  {
   "title": "Free Puyo 2 Silky Dessert dengan Kartu Kredit BNI",
   "image": "http://m.bnizona.com/files/3f019ec2d14455cfb8b087f3fd721d36.jpeg",
   "merchantName": "Puyo",
   "validUntil": "28 February 2016",
   "href": "http://m.bnizona.com/index.php/promo/view/18/1143"
  },
  {
   "title": "Sajian istimewa di Lilipadi Bandung Diskon 25%",
   "image": "http://m.bnizona.com/files/7d814c9c0345f9da15991bf3212fba13.jpg",
   "merchantName": "Lilipadi Bandung",
   "validUntil": "29 February 2016",
   "href": "http://m.bnizona.com/index.php/promo/view/18/1104"
  },
  {
   "title": "Kuliner hemat di Blackpepper Bandung Diskon 30%",
   "image": "http://m.bnizona.com/files/a6c0d8e8c728062b83d8326e6a2ce748.jpg",
   "merchantName": "Blackpepper Bandung",
   "validUntil": "29 February 2016",
   "href": "http://m.bnizona.com/index.php/promo/view/18/1102"
  },
  {
   "title": "Diskon 20% dengan Kartu Kredit BNI @Excelso",
   "image": "http://m.bnizona.com/files/159eae3c2f9b882ce285a4d2640b93ed.jpg",
   "merchantName": "Excelso",
   "validUntil": "10 March 2016",
   "href": "http://m.bnizona.com/index.php/promo/view/18/1081"
  },
  {
   "title": "HEMAT Rp10.000,- PAKET NASIKU (PANASKU) DI 7ELEVEN",
   "image": "http://m.bnizona.com/files/cfabf057560e5cbfd6fc62e988864c55.jpg",
   "merchantName": "BNI Experience",
   "validUntil": "28 February 2016",
   "href": "http://m.bnizona.com/index.php/promo/view/18/1076"
  },
  {
   "title": "Fiddleheads Pondok Indah Mall Disc. up to 33%",
   "image": "http://m.bnizona.com/files/cf5664d83dd9689dfa07419e9dbe2454.jpeg",
   "merchantName": "Fiddleheads",
   "validUntil": "30 April 2016",
   "href": "http://m.bnizona.com/index.php/promo/view/18/967"
  },
  {
   "title": "Enjoy dining at Incognito Disc. up to 33%",
   "image": "http://m.bnizona.com/files/e06b803e9992b8d3cda6df4e81e4a71d.jpg",
   "merchantName": "Incognito",
   "validUntil": "30 April 2016",
   "href": "http://m.bnizona.com/index.php/promo/view/18/966"
  },
  {
   "title": "White Hunter Diskon hingga 33%",
   "image": "http://m.bnizona.com/files/a29d5a042316b93a0725aa99a1975742.jpg",
   "merchantName": "White Hunter",
   "validUntil": "30 April 2016",
   "href": "http://m.bnizona.com/index.php/promo/view/18/963"
  },
  {
   "title": "Han Gang Diskon hingga 33%",
   "image": "http://m.bnizona.com/files/1df466566de3fdebb53e86addecc1427.jpg",
   "merchantName": "Han Gang",
   "validUntil": "30 April 2016",
   "href": "http://m.bnizona.com/index.php/promo/view/18/962"
  },
  {
   "title": "Grand Suki diskon hingga 33%",
   "image": "http://m.bnizona.com/files/9ca3491e3432942cf0fda60e13b1535f.png",
   "merchantName": "Grand Suki",
   "validUntil": "30 April 2016",
   "href": "http://m.bnizona.com/index.php/promo/view/18/898"
  },
  {
   "title": "Diskon 20% di Beranda Cafe Crowne Plaza Hotel ",
   "image": "http://m.bnizona.com/files/91c58a5ea341602bd6f78531a53aba05.gif",
   "merchantName": "Crowne Plaza Hotel",
   "validUntil": "10 June 2016",
   "href": "http://m.bnizona.com/index.php/promo/view/18/882"
  }
 ],
 "Electronic": [
  {
   "title": "Installment 0% di Showroom Elektronik 88",
   "image": "http://m.bnizona.com/files/3070dc904f9324d3c0f99accaa4490dc.jpg",
   "merchantName": "Showroom Elektronik 88",
   "validUntil": "23 April 2016",
   "href": "http://m.bnizona.com/index.php/promo/view/19/835"
  },
  {
   "title": "Installment 0% di Global Computer",
   "image": "http://m.bnizona.com/files/88735f145c714cfee8f4e28aa2857456.jpg",
   "merchantName": "Global Computer",
   "validUntil": "05 April 2016",
   "href": "http://m.bnizona.com/index.php/promo/view/19/827"
  },
  {
   "title": "Installment 0% 6 & 12 bulan di Global Electronic",
   "image": "http://m.bnizona.com/files/3021a771c439709a14a0b97ca6065364.jpg",
   "merchantName": "Global Elektronik",
   "validUntil": "31 March 2016",
   "href": "http://m.bnizona.com/index.php/promo/view/19/791"
  },
  {
   "title": "Installment 0% di Toko Pluto Com",
   "image": "http://m.bnizona.com/files/2aea935e938f0d46186551097946b642.jpg",
   "merchantName": "Toko Pluto Com",
   "validUntil": "22 March 2016",
   "href": "http://m.bnizona.com/index.php/promo/view/19/754"
  },
  {
   "title": "Installment 0% di Hongkong Elektronik",
   "image": "http://m.bnizona.com/files/c903abb35cdc79d8d22d82b3ed37c887.jpg",
   "merchantName": "Hongkong Elektronik",
   "validUntil": "15 March 2016",
   "href": "http://m.bnizona.com/index.php/promo/view/19/729"
  },
  {
   "title": "Installment 0% di Expo Elektronik",
   "image": "http://m.bnizona.com/files/ba3aee05d7e688dc91f855ed8013a131.jpg",
   "merchantName": "Expo Elektronik",
   "validUntil": "19 March 2016",
   "href": "http://m.bnizona.com/index.php/promo/view/19/725"
  },
  {
   "title": "Installment 0% di Emporium Collection",
   "image": "http://m.bnizona.com/files/70ffee69355d7aafa3971011a6f65584.jpg",
   "merchantName": "Emporium Collection",
   "validUntil": "19 March 2016",
   "href": "http://m.bnizona.com/index.php/promo/view/19/724"
  },
  {
   "title": "Installment 0% di Central Panam Elektronik",
   "image": "http://m.bnizona.com/files/35e62690831e3ff2079e0fc9e0209280.jpg",
   "merchantName": "Central Panam Elektronik",
   "validUntil": "12 March 2016",
   "href": "http://m.bnizona.com/index.php/promo/view/19/723"
  },
  {
   "title": "Installment 0% di Baby Power",
   "image": "http://m.bnizona.com/files/b1f6ba1d05be48dfe5f212b8374c64a4.jpg",
   "merchantName": "Baby Power",
   "validUntil": "19 March 2016",
   "href": "http://m.bnizona.com/index.php/promo/view/19/719"
  },
  {
   "title": "Installment 0% di Agung Jaya Elektronik",
   "image": "http://m.bnizona.com/files/cbacb81ea74a1e7c9d8c12449d6cdcb2.jpg",
   "merchantName": "Agung Jaya Elektronik",
   "validUntil": "10 March 2016",
   "href": "http://m.bnizona.com/index.php/promo/view/19/718"
  },
  {
   "title": "Installment 0% di Abadi Elektronik",
   "image": "http://m.bnizona.com/files/290a5129058ae4632d3e876d674c1d93.jpg",
   "merchantName": "Abadi Elektronik",
   "validUntil": "17 March 2016",
   "href": "http://m.bnizona.com/index.php/promo/view/19/717"
  },
  {
   "title": "Installment 0% di J-BROS",
   "image": "http://m.bnizona.com/files/cfab55f222cbfc81f153c09bf391e6b1.jpg",
   "merchantName": "J-BROS",
   "validUntil": "09 March 2016",
   "href": "http://m.bnizona.com/index.php/promo/view/19/690"
  }
 ],
 "Gadget": [
  {
   "title": "CASHBACK hingga Rp250 ribu di Erafone Roadshow Supermall Karawaci",
   "image": "http://m.bnizona.com/files/908253088d22419c63ff424cb3fe7d0b.jpg",
   "merchantName": "Erafone",
   "validUntil": "28 February 2016",
   "href": "http://m.bnizona.com/index.php/promo/view/20/1168"
  },
  {
   "title": "Tambahan Cashback hingg Rp500 ribu di Erafone Lunar Fest 2016",
   "image": "http://m.bnizona.com/files/908253088d22419c63ff424cb3fe7d0b.jpg",
   "merchantName": "Erafone",
   "validUntil": "29 February 2016",
   "href": "http://m.bnizona.com/index.php/promo/view/20/1156"
  },
  {
   "title": "Installment 0% di Link Cell Division",
   "image": "http://m.bnizona.com/files/b93bdc03c09633a06b0de1ed33e489bf.jpg",
   "merchantName": "Link Cell Division",
   "validUntil": "19 April 2016",
   "href": "http://m.bnizona.com/index.php/promo/view/20/828"
  },
  {
   "title": "Installment 0% di Smartphone Shop",
   "image": "http://m.bnizona.com/files/28272597b7fb0044cf4019e506df626f.jpg",
   "merchantName": "Smartphone Shop",
   "validUntil": "12 March 2016",
   "href": "http://m.bnizona.com/index.php/promo/view/20/741"
  },
  {
   "title": "Installment 0% di Oppo Store Centre",
   "image": "http://m.bnizona.com/files/6496462ef88e5c414892f0ce792ff94a.jpg",
   "merchantName": "Oppo Store Centre",
   "validUntil": "18 March 2016",
   "href": "http://m.bnizona.com/index.php/promo/view/20/736"
  },
  {
   "title": "Installment 0% di Fernando ponsel",
   "image": "http://m.bnizona.com/files/eb8186afc93bd2a7124f248d15a9c50e.jpg",
   "merchantName": "Fernando ponsel",
   "validUntil": "25 March 2016",
   "href": "http://m.bnizona.com/index.php/promo/view/20/726"
  },
  {
   "title": "Installment 0% di 7070 Selular",
   "image": "http://m.bnizona.com/files/4e0d15504e42b1c5b2497ae760bc0589.jpg",
   "merchantName": "7070 Selular",
   "validUntil": "10 March 2016",
   "href": "http://m.bnizona.com/index.php/promo/view/20/681"
  }
 ],
 "Home": [
  {
   "title": "DISKON hingga 55% di AGM Fair - Mall Artha Gading    ",
   "image": "http://m.bnizona.com/files/448300608916c94cb77f476d46c49196.jpg",
   "merchantName": "AGM - American Giant Mattress",
   "validUntil": "13 March 2016",
   "href": "http://m.bnizona.com/index.php/promo/view/21/1170"
  },
  {
   "title": "Diskon hingga 15% di KARE Design",
   "image": "http://m.bnizona.com/files/f5dbf2f029c3764efb2ab8fa3ef0fb30.jpg",
   "merchantName": "KARE Design",
   "validUntil": "30 April 2016",
   "href": "http://m.bnizona.com/index.php/promo/view/21/1164"
  },
  {
   "title": "Diskon hingga 20% untuk Produk Pilihan + Cicilan 0% hingga 12 bulan di ACE International Brands",
   "image": "http://m.bnizona.com/files/4e12792ea3c17b20780e60018e783fd8.jpg",
   "merchantName": "ACE",
   "validUntil": "08 March 2016",
   "href": "http://m.bnizona.com/index.php/promo/view/21/1159"
  }
 ],
 "Accessories": [
  {
   "title": "Diskon 15% + Cicilan 0% di Julia Jewelry",
   "image": "http://m.bnizona.com/files/682d9ec77ff7a5cc1823f9248349d4c7.jpg",
   "merchantName": "Julia Jewelry",
   "validUntil": "28 February 2016",
   "href": "http://m.bnizona.com/index.php/promo/view/22/1125"
  },
  {
   "title": "Installment 0% di Toko Mido",
   "image": "http://m.bnizona.com/files/679cc38fe1a7992865043dcfd2dbdd13.jpg",
   "merchantName": "Toko Mido",
   "validUntil": "01 March 2016",
   "href": "http://m.bnizona.com/index.php/promo/view/22/753"
  },
  {
   "title": "Installment 0% di Swiss Watch",
   "image": "http://m.bnizona.com/files/9dc3c41f7d7979e043d7a27366d19695.jpg",
   "merchantName": "Swiss Watch",
   "validUntil": "19 March 2016",
   "href": "http://m.bnizona.com/index.php/promo/view/22/744"
  },
  {
   "title": "Installment 0% di Swiss Collection",
   "image": "http://m.bnizona.com/files/76ce3f398675347463cb2019b9dacfab.jpg",
   "merchantName": "Swiss Collection",
   "validUntil": "19 March 2016",
   "href": "http://m.bnizona.com/index.php/promo/view/22/743"
  },
  {
   "title": "Installment 0% di Time Connection",
   "image": "http://m.bnizona.com/files/32953a475f22988b6d82601100b8dc95.jpg",
   "merchantName": "Time Connection",
   "validUntil": "24 February 2016",
   "href": "http://m.bnizona.com/index.php/promo/view/22/695"
  },
  {
   "title": "Installment 0% di Casio SKA",
   "image": "http://m.bnizona.com/files/2e17f89f73c6ab252739410fc4e5a1c8.jpg",
   "merchantName": "Casio SKA",
   "validUntil": "24 February 2016",
   "href": "http://m.bnizona.com/index.php/promo/view/22/688"
  },
  {
   "title": "Installment 0% di Casio Ciputra",
   "image": "http://m.bnizona.com/files/df392a54748be465adcc5a3558f48f96.jpg",
   "merchantName": "Casio Ciputra",
   "validUntil": "24 February 2016",
   "href": "http://m.bnizona.com/index.php/promo/view/22/687"
  }
 ],
 "Travel": [
  {
   "title": "DISKON TIKET PESAWAT Rp50 ribu + HOTEL 8% di TIKET.com",
   "image": "http://m.bnizona.com/files/2d3edd6cf645fe42975f7eeda602c69f.png",
   "merchantName": "Tiket.com",
   "validUntil": "29 February 2016",
   "href": "http://m.bnizona.com/index.php/promo/view/23/1137"
  },
  {
   "title": "Spesial Imlek CITILINK dengan Kartu Kredit BNI",
   "image": "http://m.bnizona.com/files/3afc77d361196938ea059948adfd0fb6.jpg",
   "merchantName": "Citilink",
   "validUntil": "28 February 2016",
   "href": "http://m.bnizona.com/index.php/promo/view/23/1132"
  },
  {
   "title": "Diskon Rp 50 ribu untuk pemesanan tiket pesawat di Ezytravel.co.id",
   "image": "http://m.bnizona.com/files/99cdd850ef0e96a3c0ffc435ca216075.jpg",
   "merchantName": "EzyTravel",
   "validUntil": "29 February 2016",
   "href": "http://m.bnizona.com/index.php/promo/view/23/1130"
  },
  {
   "title": "Fly with Emirates Airlines disc. up to 15%",
   "image": "http://m.bnizona.com/files/75742142f68a22a5a691233f52243f43.jpg",
   "merchantName": "Emirates Airlines",
   "validUntil": "30 March 2016",
   "href": "http://m.bnizona.com/index.php/promo/view/23/954"
  },
  {
   "title": "Sriwijaya Air Cicilan 0% 3, 6 & 12 Bulan pada Online dan Ticketing Office",
   "image": "http://m.bnizona.com/files/bced1f73777c7b1de7b3ef9021b8af23.jpg",
   "merchantName": "Sriwijaya Air",
   "validUntil": "15 June 2016",
   "href": "http://m.bnizona.com/index.php/promo/view/23/907"
  }
 ],
 "Hotel": [
  {
   "title": "Khusus Selasa Diskon Rp 100 ribu untuk order Hotel di Ezytravel.co.id",
   "image": "http://m.bnizona.com/files/99cdd850ef0e96a3c0ffc435ca216075.jpg",
   "merchantName": "EzyTravel",
   "validUntil": "31 May 2016",
   "href": "http://m.bnizona.com/index.php/promo/view/24/1117"
  },
  {
   "title": "Diskon 10% untuk Kamar + 15% Resto & Spa di Solo Paragon Hotel",
   "image": "http://m.bnizona.com/files/bca091de48a6d799695f19022136e783.jpg",
   "merchantName": "Solo Paragon Hotel",
   "validUntil": "31 March 2016",
   "href": "http://m.bnizona.com/index.php/promo/view/24/881"
  },
  {
   "title": "Diskon 10% untuk Kamar + 15% Resto & Spa di Eden Hotel Bali",
   "image": "http://m.bnizona.com/files/02d04f4ffd13ba2d560df33ad3af8db0.jpg",
   "merchantName": "Eden Hotel Bali",
   "validUntil": "31 March 2016",
   "href": "http://m.bnizona.com/index.php/promo/view/24/879"
  },
  {
   "title": "Diskon 30% di Sagan Hotel - Yogyakarta",
   "image": "http://m.bnizona.com/files/f70599d2c5d5308f755945be06c60643.jpg",
   "merchantName": "Sagan Hotel",
   "validUntil": "31 March 2016",
   "href": "http://m.bnizona.com/index.php/promo/view/24/831"
  },
  {
   "title": "Diskon up to 50% Merapi Merbabu Hotel - Yogyakarta",
   "image": "http://m.bnizona.com/files/6981a637d141606e8af3b15fb67150b8.jpg",
   "merchantName": "Merapi Merbabu Hotel ",
   "validUntil": "20 March 2016",
   "href": "http://m.bnizona.com/index.php/promo/view/24/816"
  },
  {
   "title": "Diskon up to 30% di Tickle Hotel - Yogyakarta",
   "image": "http://m.bnizona.com/files/81c1774be98752902b0b9da5f88d455b.jpg",
   "merchantName": "Tickle Hotel Yogyakarta",
   "validUntil": "20 March 2016",
   "href": "http://m.bnizona.com/index.php/promo/view/24/815"
  },
  {
   "title": "Diskon 45% di Indoluxe Hotel - Yogyakarta",
   "image": "http://m.bnizona.com/files/586337d50217b9e0518471b7a821604c.jpg",
   "merchantName": "Indoluxe Hotel",
   "validUntil": "15 April 2016",
   "href": "http://m.bnizona.com/index.php/promo/view/24/811"
  },
  {
   "title": "Diskon up to 55% di Crystal Lotus Hotel - Yogyakarta",
   "image": "http://m.bnizona.com/files/e936da0b749b2623720325d9aeb101f3.jpg",
   "merchantName": "Crystal Lotus Hotel",
   "validUntil": "31 March 2016",
   "href": "http://m.bnizona.com/index.php/promo/view/24/810"
  },
  {
   "title": "Diskon hingga 35% di Nagoya Plasa Hotel",
   "image": "http://m.bnizona.com/files/adf0f6bbece9982977e8a4466678398a.jpg",
   "merchantName": "Nagoya Plasa Hotel",
   "validUntil": "16 April 2016",
   "href": "http://m.bnizona.com/index.php/promo/view/24/787"
  },
  {
   "title": "Diskon hingga 55% di Premiere Hotel Pekanbaru",
   "image": "http://m.bnizona.com/files/99e087fcd174e31fec535612d5312128.jpg",
   "merchantName": "Premiere Hotel Pekanbaru",
   "validUntil": "15 March 2016",
   "href": "http://m.bnizona.com/index.php/promo/view/24/701"
  }
 ],
 "Health Service": [
  {
   "title": "Gratis Voucher at Watsons Indonesia",
   "image": "http://m.bnizona.com/files/f3f2997fcd10c7361723aa1adc310e7c.jpg",
   "merchantName": "watsons",
   "validUntil": "08 July 2016",
   "href": "http://m.bnizona.com/index.php/promo/view/25/1005"
  },
  {
   "title": "RS Surya Husadha Badung & Denpasar Diskon 20% Room dan Diskon 10% Medical Check-up",
   "image": "http://m.bnizona.com/files/354fcd3ef843122e928734a44f5095d5.jpg",
   "merchantName": "RS Surya Husadha Denpasar ",
   "validUntil": "01 April 2016",
   "href": "http://m.bnizona.com/index.php/promo/view/25/941"
  }
 ],
 "Miscellaneous": [
  {
   "title": "SUKUK NEGARA RITEL Seri SR008 - Investasikan dana Anda untuk masa depan anak Indonesia",
   "image": "http://m.bnizona.com/files/f845be280c76043aba10fd47be51d975.jpeg",
   "merchantName": "BNI ",
   "validUntil": "04 March 2016",
   "href": "http://m.bnizona.com/index.php/promo/view/26/1167"
  },
  {
   "title": "CASHBACK Rp200 ribu di MATAHARIMALL dengan Kartu Kredit BNI",
   "image": "http://m.bnizona.com/files/49ec44b01240fb2e821d559f8e9632e1.jpg",
   "merchantName": "Matahari Mall",
   "validUntil": "29 February 2016",
   "href": "http://m.bnizona.com/index.php/promo/view/26/1165"
  },
  {
   "title": "Cashback hingga Rp 200 ribu di BLANJA.com dengan Kartu Kredit BNI",
   "image": "http://m.bnizona.com/files/a9dbee45bb9f1319e6bd6ff552fff0c2.jpg",
   "merchantName": "blanja.com",
   "validUntil": "31 March 2016",
   "href": "http://m.bnizona.com/index.php/promo/view/26/1161"
  },
  {
   "title": "Ekstra diskon 15% + Gratis CD Deluxe Maliq & Dessential di Blibli.com",
   "image": "http://m.bnizona.com/files/e5037e24126064d09e70b9b6d3673e04.png",
   "merchantName": "blibli.com ",
   "validUntil": "31 March 2016",
   "href": "http://m.bnizona.com/index.php/promo/view/26/1160"
  },
  {
   "title": "DISKON TAMBAHAN 10% di www.MatahariMall.com dengan Kartu Kredit BNI",
   "image": "http://m.bnizona.com/files/49ec44b01240fb2e821d559f8e9632e1.jpg",
   "merchantName": "Matahari Mall",
   "validUntil": "29 February 2016",
   "href": "http://m.bnizona.com/index.php/promo/view/26/1139"
  },
  {
   "title": "No Surcharge dan MasterCard Weekend Offer di SPBU Pertamina",
   "image": "http://m.bnizona.com/files/2cefdac152c82c5fac11fd1fc1f33e5a.jpg",
   "merchantName": "Pertamina",
   "validUntil": "28 February 2016",
   "href": "http://m.bnizona.com/index.php/promo/view/26/1110"
  },
  {
   "title": "Nikmati kenyamanan layanan perbankan digital di BNI e-Branch",
   "image": "http://m.bnizona.com/files/f845be280c76043aba10fd47be51d975.jpeg",
   "merchantName": "BNI ",
   "validUntil": "31 December 2016",
   "href": "http://m.bnizona.com/index.php/promo/view/26/1094"
  },
  {
   "title": "Transaksi dengan PIN Kartu Kredit BNI",
   "image": "http://m.bnizona.com/files/f845be280c76043aba10fd47be51d975.jpeg",
   "merchantName": "BNI ",
   "validUntil": "31 March 2016",
   "href": "http://m.bnizona.com/index.php/promo/view/26/1084"
  },
  {
   "title": "BNI Twitter #Hashtag",
   "image": "http://m.bnizona.com/files/cfabf057560e5cbfd6fc62e988864c55.jpg",
   "merchantName": "BNI Experience",
   "validUntil": "31 December 2016",
   "href": "http://m.bnizona.com/index.php/promo/view/26/1077"
  },
  {
   "title": "14-DAYS FREE Trial at English First",
   "image": "http://m.bnizona.com/files/6edca6072af2292b40055aac2fe8c083.jpg",
   "merchantName": "English First",
   "validUntil": "31 March 2016",
   "href": "http://m.bnizona.com/index.php/promo/view/26/1032"
  },
  {
   "title": "Rejeki BNI Taplus 2015",
   "image": "http://m.bnizona.com/files/f845be280c76043aba10fd47be51d975.jpeg",
   "merchantName": "BNI ",
   "validUntil": "31 March 2016",
   "href": "http://m.bnizona.com/index.php/promo/view/26/1030"
  },
  {
   "title": "BNI EXPERIENCE",
   "image": "http://m.bnizona.com/files/cfabf057560e5cbfd6fc62e988864c55.jpg",
   "merchantName": "BNI Experience",
   "validUntil": "31 December 2020",
   "href": "http://m.bnizona.com/index.php/promo/view/26/983"
  }
 ],
 "Entertainment": [
  {
   "title": "Langganan MNC Play Pay 8 Get Free 4 months atau Pay 4 Get Free 2 months ",
   "image": "http://m.bnizona.com/files/5e18ed1489139812180601e653ff3038.jpg",
   "merchantName": "MNC Play",
   "validUntil": "14 June 2016",
   "href": "http://m.bnizona.com/index.php/promo/view/28/961"
  }
 ],
 "Sports": [
  {
   "title": "Diskon hingga 15% brand Nike dengan Kartu Kredit BNI",
   "image": "http://m.bnizona.com/files/fa99c38a91b79717219061b5966a0b58.jpg",
   "merchantName": "Nike",
   "validUntil": "18 March 2017",
   "href": "http://m.bnizona.com/index.php/promo/view/34/1116"
  }
 ],
 "Cicilan 0%": [
  {
   "title": "Installment 0% di VH Pusat Grosir",
   "image": "http://m.bnizona.com/files/fdf07a02f1c8dd2bcc4f911cd43304f8.jpg",
   "merchantName": "VH Pusat Grosir",
   "validUntil": "12 March 2016",
   "href": "http://m.bnizona.com/index.php/promo/view/35/758"
  },
  {
   "title": "Installment 0% di Toko Maju",
   "image": "http://m.bnizona.com/files/e8a4fde9679b7b9508394efa0b717ffe.jpg",
   "merchantName": "Toko Maju",
   "validUntil": "19 March 2016",
   "href": "http://m.bnizona.com/index.php/promo/view/35/751"
  },
  {
   "title": "Installment 0% di Toko Andalas Bangunan",
   "image": "http://m.bnizona.com/files/c0ae0230b732b1dbdc141d3341bc00af.jpg",
   "merchantName": "Toko Andalas Bangunan",
   "validUntil": "14 March 2016",
   "href": "http://m.bnizona.com/index.php/promo/view/35/749"
  },
  {
   "title": "Penawaran spesial di RY Auto Services",
   "image": "http://m.bnizona.com/files/d966aa132fdcc2f2d1a82524f8c7c951.jpg",
   "merchantName": "RY Auto Services",
   "validUntil": "23 March 2016",
   "href": "http://m.bnizona.com/index.php/promo/view/35/716"
  },
  {
   "title": "Penawaran spesial di MZR Auto Services",
   "image": "http://m.bnizona.com/files/cfb24a180de56c7496c26771a1fc5ae8.jpg",
   "merchantName": "MZR Auto Services",
   "validUntil": "23 March 2016",
   "href": "http://m.bnizona.com/index.php/promo/view/35/715"
  },
  {
   "title": "Penawaran spesial di EFO Auto Services",
   "image": "http://m.bnizona.com/files/e003a5e2668f1424689f06f54c494ddd.jpg",
   "merchantName": "EFO Auto Services",
   "validUntil": "23 March 2016",
   "href": "http://m.bnizona.com/index.php/promo/view/35/714"
  },
  {
   "title": "Penawaran spesial di BBC Oto Service",
   "image": "http://m.bnizona.com/files/d2f0bbe6cd36a80547eaa6175bb284b1.jpg",
   "merchantName": "BBC Oto Service",
   "validUntil": "23 March 2016",
   "href": "http://m.bnizona.com/index.php/promo/view/35/713"
  },
  {
   "title": "Penawaran spesial di ARD Auto Service",
   "image": "http://m.bnizona.com/files/7f4e9f863ab8caab4e50ceaa233ca7a0.jpg",
   "merchantName": "ARD Auto Service",
   "validUntil": "23 March 2016",
   "href": "http://m.bnizona.com/index.php/promo/view/35/712"
  }
 ],
 "Hobbies": [
  {
   "title": "Mari Belajar di 88 ENGLISH Surabaya, Diskon 30%",
   "image": "http://m.bnizona.com/files/cc8b1130e7c88c6ef0466fe992c91945.jpg",
   "merchantName": "88 ENGLISH",
   "validUntil": "08 May 2016",
   "href": "http://m.bnizona.com/index.php/promo/view/39/846"
  }
 ]
}